0dc9ae710ba5a5f610dc77c5b9ddc2a82a5bd1c57e2f2c5b2f
10f432880dcdd85073fbfb5ba47be4b95389dfc9e28030a735
1696ad10dbacc16b57e7cefabb28a0818a6ded9130aa9022b0
86af68a419877a084efb6496d517a006c0c5de28bfac8345f2
53435df9155b2e16ceb8b0ed3cb88711a4040650110390e879
84f4feb436204aa9b577c72addb3f3f141bc1470866c9d2687
c9ad07febd9341942fbca90b6711d66d20228fa89eebc6f8db
938f2db818e97298a2ef40f9e4ea95a9a3cb326cfa50565252
c0be4131f4b864a09a7838a9df3ab393ab46fc4e297b31c596
34330a2d2441e031a8540f854641ff6f330c303e96106ebe84
8d5a51079cb5049dc62c92f0332227409abf5dd645d33b6098
28b637f31b2ee7f4b3c440ccd0e184378a733dec351bd5fa8e
e987cd24032065b2cee0e1123f4baaa7e74bbf677fe2cc2cc4
5cf789565d2b9a21cdd52e02dca1d7059d05298b49565073a7
97a2d07d59fedd6af9108c2b9db68a66e295f57d5522bf5e66
635673170d2b4b8c0eb79663ae2c809a153e099fe58f07f74f
65418bf45458a94abbe8fbe70af42181dd26ecc6f2a0653cd4
1545b36d8b32092b79af29b7fe9388237ca25281cbbbff52f9
224453ebe1d919b353c38968b6fbd025acf10a858df6121361
505eff0604f6c48584f37101edd3a1405a5d88439a5e6296f6
b06c1dae8b18d60c967760c864fec589b7bd5a12382eaa579f
e5b9a7f8cb0802d888e4c29982ff627bf24532f5b16f16cf88
1f9c35f73ef0d203f4409709dc25b60f4176949c442f823952
59258850d4289492f87c422957d2cf3f07a2d5c5947c3076aa
7fc9d4326ae70b8b3f925052eb2144f5c9e9659754621a8fff
b1d8969e0163f2503f8294932b47501e557872a5ec691539dc
b0c56fc3dcfc57d62928b5e5cbea082e5762a1082a867b986d
18b42c7d622a1048ff5f0acc269fb3a50fbd7ba64ffb5da392
b86a3a269e8c5ce6b20f8085e20c7d8a0a90f9bff330907c98
8980db29bb09950b97698a9610b0a193593d55d389cf10c001
c3084bd927c0fe2700f4dec0090d7b718378a602d677ce69b3
18e86c6f73ea365564d933b553471cad3326f2c2c0091513b3
325923e38bc76abbee1d2b6bb325358876c709dcba87e328c6
e871b3e87945be42bfc058db891999ee85c043d89bf5913634
f80c68e7584684c536f70190e5ce094c6c39984e0712d45fc9
a2b9784c71dee9bdbef4bdb0ceddd87a631030332cfadcd9f2
f71cddc63a34613b6ab9cd366a98d6e479f1d029c1eaa9e56b
911dfa8af73f25269975414964b74c2ea514532b35f8591f45
f4125c38b2ea32e4085ef45a719482d29f19ce996edfff3755
381bbb8fd8e8fa449b64eee96db1a510d4c7328d29b819c341
